…
```
## Getting data from the 2014-2018 5-year ACS
```

```r
pa
```

```
## # A tibble: 67 x 5
##    GEOID NAME                           variable  estimate   moe
##    <chr> <chr>                          <chr>        <dbl> <dbl>
##  1 42001 Adams County, Pennsylvania     medincome    64507  1226
##  2 42003 Allegheny County, Pennsylvania medincome    58383   611
##  3 42005 Armstrong County, Pennsylvania medincome    49032  2051
##  4 42007 Beaver County, Pennsylvania    medincome    55828  1201
##  5 42009 Bedford County, Pennsylvania   medincome    49146  1524
##  6 42011 Berks County, Pennsylvania     medincome    61522   826
##  7 42013 Blair County, Pennsylvania     medincome    47969  1449
##  8 42015 Bradford County, Pennsylvania  medincome    51457  1337
##  9 42017 Bucks County, Pennsylvania     medincome    86055  1084
## 10 42019 Butler County, Pennsylvania    medincome    68472  1115
## # … with 57 more rows
```
…
